{
    "KPlugin": {
        "Authors": [
            {
                "Email": "tokoe@kde.org",
                "Name": "Tobias Koenig",
                "Name[ar]": "Tobias Koenig",
                "Name[az]": "Tobias Koenig",
                "Name[ca@valencia]": "Tobias Koenig",
                "Name[ca]": "Tobias Koenig",
                "Name[cs]": "Tobias Koenig",
                "Name[da]": "Tobias Koenig",
                "Name[de]": "Tobias Koenig",
                "Name[el]": "Tobias Koenig",
                "Name[en_GB]": "Tobias Koenig",
                "Name[es]": "Tobias Koenig",
                "Name[et]": "Tobias Koenig",
                "Name[eu]": "Tobias Koenig",
                "Name[fi]": "Tobias Koenig",
                "Name[fr]": "Tobias Koenig",
                "Name[gl]": "Tobias Koenig",
                "Name[ia]": "Tobias Koenig",
                "Name[it]": "Tobias Koenig",
                "Name[ko]": "Tobias Koenig",
                "Name[lt]": "Tobias Koenig",
                "Name[nl]": "Tobias Koenig",
                "Name[nn]": "Tobias König",
                "Name[pa]": "Tobias Koenig",
                "Name[pl]": "Tobias Koenig",
                "Name[pt]": "Tobias Koenig",
                "Name[pt_BR]": "Tobias Koenig",
                "Name[ru]": "Tobias König",
                "Name[sk]": "Tobias Koenig",
                "Name[sl]": "Tobias Koenig",
                "Name[sr@ijekavian]": "Тобијас Кениг",
                "Name[sr@ijekavianlatin]": "Tobijas Kenig",
                "Name[sr@latin]": "Tobijas Kenig",
                "Name[sr]": "Тобијас Кениг",
                "Name[sv]": "Tobias Koenig",
                "Name[tr]": "Tobias Koenig",
                "Name[uk]": "Tobias Koenig",
                "Name[x-test]": "xxTobias Koenigxx",
                "Name[zh_CN]": "Tobias Koenig",
                "Name[zh_TW]": "Tobias Koenig"
            }
        ],
        "Copyright": "© 2008 Tobias Koenig",
        "Copyright[ar]": "© 2008 Tobias Koenig",
        "Copyright[az]": "© 2008 Tobias Koenig",
        "Copyright[ca@valencia]": "© 2008 Tobias Koenig",
        "Copyright[ca]": "© 2008 Tobias Koenig",
        "Copyright[cs]": "© 2008 Tobias Koenig",
        "Copyright[da]": "© 2008 Tobias Koenig",
        "Copyright[de]": "© 2008 Tobias Koenig",
        "Copyright[el]": "© 2008 Tobias Koenig",
        "Copyright[en_GB]": "© 2008 Tobias Koenig",
        "Copyright[es]": "© 2008 Tobias Koenig",
        "Copyright[et]": "© 2008: Tobias Koenig",
        "Copyright[eu]": "© 2008 Tobias Koenig",
        "Copyright[fi]": "© 2008 Tobias Koenig",
        "Copyright[fr]": "© 2008 Tobias Koenig",
        "Copyright[gl]": "© 2008 Tobias Koenig",
        "Copyright[ia]": "© 2008 Tobias Koenig",
        "Copyright[it]": "© 2008 Tobias Koenig",
        "Copyright[ko]": "© 2008 Tobias Koenig",
        "Copyright[lt]": "© 2008 Tobias Koenig",
        "Copyright[nl]": "© 2008 Tobias Koenig",
        "Copyright[nn]": "© 2008 Tobias König",
        "Copyright[pa]": "© 2008 Tobias Koenig",
        "Copyright[pl]": "© 2008 Tobias Koenig",
        "Copyright[pt]": "© 2008 Tobias Koenig",
        "Copyright[pt_BR]": "© 2008 Tobias Koenig",
        "Copyright[ru]": "© Tobias König, 2008",
        "Copyright[sk]": "© 2008 Tobias Koenig",
        "Copyright[sl]": "© 2008 Tobias Koenig",
        "Copyright[sr@ijekavian]": "© 2008, Тобијас Кениг",
        "Copyright[sr@ijekavianlatin]": "© 2008, Tobijas Kenig",
        "Copyright[sr@latin]": "© 2008, Tobijas Kenig",
        "Copyright[sr]": "© 2008, Тобијас Кениг",
        "Copyright[sv]": "© 2008 Tobias Koenig",
        "Copyright[tr]": "© 2008 Tobias Koenig",
        "Copyright[uk]": "© Tobias Koenig, 2008",
        "Copyright[x-test]": "xx© 2008 Tobias Koenigxx",
        "Copyright[zh_CN]": "© 2008 Tobias Koenig",
        "Copyright[zh_TW]": "© 2008 Tobias Koenig",
        "Description": "A G3/G4 fax document backend",
        "Description[az]": "A G3/G4 fax sənədi modulu",
        "Description[ca@valencia]": "Un dorsal per a documents de fax G3/G4",
        "Description[ca]": "Un dorsal per a documents de fax G3/G4",
        "Description[cs]": "Implementace dokumentu faxu A G3/G4",
        "Description[da]": "En G3/G4 faxdokument-backend",
        "Description[de]": "Ein Anzeigemodul für G3/G4-Faxe",
        "Description[el]": "Σύστημα υποστήριξης για έγγραφα τηλεμοιοτυπίας G3/G4",
        "Description[en_GB]": "A G3/G4 fax document backend",
        "Description[es]": "Un motor para documentos de fax G3/G4",
        "Description[et]": "G3/G4 faksidokumendi taustaprogramm",
        "Description[eu]": "G3/G4 fax dokumentuen bizkarraldekoa",
        "Description[fi]": "G3/G4-faksitiedostotaustaosa",
        "Description[fr]": "Un moteur de document fax G3/G4",
        "Description[gl]": "Unha infraestrutura de documentos de fax G3/G4",
        "Description[ia]": "UN retro-administration de documento fax G3/G4",
        "Description[it]": "Un backend per documenti fax G3/G4",
        "Description[ko]": "G3/G4 팩스 문서 백엔드",
        "Description[lt]": "G3/G4 fakso dokumentų programinė sąsaja",
        "Description[nl]": "Een backend voor een G3/G4 faxdocument",
        "Description[nn]": "Ein motor for G3/G4-faksdokument",
        "Description[pl]": "Obsługa dokumentów wysłanych faksem G3/G4",
        "Description[pt]": "Uma infra-estrutura de documentos de fax G3/G4",
        "Description[pt_BR]": "Uma infraestrutura para documentos de fax G3/G4",
        "Description[ru]": "Модуль поддержки формата факсов G3/G4",
        "Description[sk]": "Backend dokumentu faxu G3/G4",
        "Description[sl]": "Zaledje za dokumente faksov G3/G4",
        "Description[sr@ijekavian]": "Позадина за Г3 факс и Г4 факс документе",
        "Description[sr@ijekavianlatin]": "Pozadina za G4 Fax i G3 Fax dokumente",
        "Description[sr@latin]": "Pozadina za G4 Fax i G3 Fax dokumente",
        "Description[sr]": "Позадина за Г3 факс и Г4 факс документе",
        "Description[sv]": "Ett G3/G4 telefax-dokumentgränssnitt",
        "Description[tr]": "G3/G4 faks belgesi arka ucu",
        "Description[uk]": "Сервер документів факсів G3/G4",
        "Description[x-test]": "xxA G3/G4 fax document backendxx",
        "Description[zh_CN]": "G3/G4 传真文档后端",
        "Description[zh_TW]": "G3/G4 fax 文件後端介面",
        "Id": "okular_fax",
        "License": "GPL",
        "MimeTypes": [
            "image/fax-g3",
            "image/g3fax"
        ],
        "Name": "Fax Backend",
        "Name[az]": "Fax Backend",
        "Name[ca@valencia]": "Dorsal de fax",
        "Name[ca]": "Dorsal de fax",
        "Name[cs]": "Implementace faxu",
        "Name[da]": "Fax-backend",
        "Name[de]": "Anzeigemodul für Faxe",
        "Name[el]": "Σύστημα υποστήριξης fax",
        "Name[en_GB]": "Fax Backend",
        "Name[es]": "Motor para fax",
        "Name[et]": "Faksi taustaprogramm",
        "Name[eu]": "Fax-aren bizkarraldekoa",
        "Name[fi]": "Faksitaustaosa",
        "Name[fr]": "Moteur Fax",
        "Name[gl]": "Infraestrutura de fax",
        "Name[ia]": "Retro-Administration de fax",
        "Name[it]": "Backend fax",
        "Name[ko]": "팩스 백엔드",
        "Name[lt]": "Fakso programinė sąsaja",
        "Name[nl]": "Faxbackend",
        "Name[nn]": "Faksmotor",
        "Name[pl]": "Obsługa faksu",
        "Name[pt]": "Fax Backend",
        "Name[pt_BR]": "Infraestrutura de fax",
        "Name[ru]": "Модуль поддержки форматов факсов",
        "Name[sk]": "Fax Backend",
        "Name[sl]": "Zaledje za faks",
        "Name[sr@ijekavian]": "Позадина за факсове",
        "Name[sr@ijekavianlatin]": "Pozadina za faksove",
        "Name[sr@latin]": "Pozadina za faksove",
        "Name[sr]": "Позадина за факсове",
        "Name[sv]": "Telefax-gränssnitt",
        "Name[tr]": "Faks Arka Ucu",
        "Name[uk]": "Модуль факсів",
        "Name[x-test]": "xxFax Backendxx",
        "Name[zh_CN]": "传真后端",
        "Name[zh_TW]": "Fax 後端介面",
        "Version": "0.1.1"
    },
    "X-KDE-Priority": 1,
    "X-KDE-okularAPIVersion": 1,
    "X-KDE-okularHasInternalSettings": false
}
